{
  "servicedev.local": {
    "at": "db06f1946eb750a565b5a97365682982",
    "network": "127.0.0.0/255.0.0.0",
    "apps": [
      "hazelcast",
      "mariadb"
    ],
    "services": {
      "maria": {
        "instance": "main",
        "cpu:": 1
      },
      "sdev.manager": {
        "instance": "main",
        "cpu:": 1
      }
    }
  }
}